{"frames": {

"cookie1.png":
{
	"frame": {"x":0,"y":0,"w":375,"h":493},
	"rotated": false,
	"trimmed": false,
	"spriteSourceSize": {"x":0,"y":0,"w":375,"h":493},
	"sourceSize": {"w":375,"h":493}
},
"cookie2.png":
{
	"frame": {"x":375,"y":0,"w":375,"h":493},
	"rotated": false,
	"trimmed": false,
	"spriteSourceSize": {"x":0,"y":0,"w":375,"h":493},
	"sourceSize": {"w":375,"h":493}
},
"cookie3.png":
{
	"frame": {"x":750,"y":0,"w":375,"h":493},
	"rotated": false,
	"trimmed": false,
	"spriteSourceSize": {"x":0,"y":0,"w":375,"h":493},
	"sourceSize": {"w":375,"h":493}
},
"cookie4.png":
{
	"frame": {"x":1125,"y":0,"w":375,"h":493},
	"rotated": false,
	"trimmed": false,
	"spriteSourceSize": {"x":0,"y":0,"w":375,"h":493},
	"sourceSize": {"w":375,"h":493}
},
"cookie5.png":
{
	"frame": {"x":1500,"y":0,"w":375,"h":493},
	"rotated": false,
	"trimmed": false,
	"spriteSourceSize": {"x":0,"y":0,"w":375,"h":493},
	"sourceSize": {"w":375,"h":493}
},
"cookie6.png":
{
	"frame": {"x":0,"y":493,"w":375,"h":493},
	"rotated": false,
	"trimmed": false,
	"spriteSourceSize": {"x":0,"y":0,"w":375,"h":493},
	"sourceSize": {"w":375,"h":493}
},
"cookie7.png":
{
	"frame": {"x":375,"y":493,"w":375,"h":493},
	"rotated": false,
	"trimmed": false,
	"spriteSourceSize": {"x":0,"y":0,"w":375,"h":493},
	"sourceSize": {"w":375,"h":493}
},
"cookie8.png":
{
	"frame": {"x":750,"y":493,"w":375,"h":493},
	"rotated": false,
	"trimmed": false,
	"spriteSourceSize": {"x":0,"y":0,"w":375,"h":493},
	"sourceSize": {"w":375,"h":493}
},
"cookie9.png":
{
	"frame": {"x":1125,"y":493,"w":375,"h":493},
	"rotated": false,
	"trimmed": false,
	"spriteSourceSize": {"x":0,"y":0,"w":375,"h":493},
	"sourceSize": {"w":375,"h":493}
},
"cookie10.png":
{
	"frame": {"x":1500,"y":493,"w":375,"h":493},
	"rotated": false,
	"trimmed": false,
	"spriteSourceSize": {"x":0,"y":0,"w":375,"h":493},
	"sourceSize": {"w":375,"h":493}
},
"cookie11.png":
{
	"frame": {"x":0,"y":986,"w":375,"h":493},
	"rotated": false,
	"trimmed": false,
	"spriteSourceSize": {"x":0,"y":0,"w":375,"h":493},
	"sourceSize": {"w":375,"h":493}
},
"cookie12.png":
{
	"frame": {"x":375,"y":986,"w":375,"h":493},
	"rotated": false,
	"trimmed": false,
	"spriteSourceSize": {"x":0,"y":0,"w":375,"h":493},
	"sourceSize": {"w":375,"h":493}
},
"cookie13.png":
{
	"frame": {"x":750,"y":986,"w":375,"h":493},
	"rotated": false,
	"trimmed": false,
	"spriteSourceSize": {"x":0,"y":0,"w":375,"h":493},
	"sourceSize": {"w":375,"h":493}
},
"cookie14.png":
{
	"frame": {"x":1125,"y":986,"w":375,"h":493},
	"rotated": false,
	"trimmed": false,
	"spriteSourceSize": {"x":0,"y":0,"w":375,"h":493},
	"sourceSize": {"w":375,"h":493}
},
"cookie15.png":
{
	"frame": {"x":1500,"y":986,"w":375,"h":493},
	"rotated": false,
	"trimmed": false,
	"spriteSourceSize": {"x":0,"y":0,"w":375,"h":493},
	"sourceSize": {"w":375,"h":493}
},
"cookie16.png":
{
	"frame": {"x":0,"y":1479,"w":375,"h":493},
	"rotated": false,
	"trimmed": false,
	"spriteSourceSize": {"x":0,"y":0,"w":375,"h":493},
	"sourceSize": {"w":375,"h":493}
},
"cookie17.png":
{
	"frame": {"x":375,"y":1479,"w":375,"h":493},
	"rotated": false,
	"trimmed": false,
	"spriteSourceSize": {"x":0,"y":0,"w":375,"h":493},
	"sourceSize": {"w":375,"h":493}
},
"cookie18.png":
{
	"frame": {"x":750,"y":1479,"w":375,"h":493},
	"rotated": false,
	"trimmed": false,
	"spriteSourceSize": {"x":0,"y":0,"w":375,"h":493},
	"sourceSize": {"w":375,"h":493}
},
"cookie19.png":
{
	"frame": {"x":1125,"y":1479,"w":375,"h":493},
	"rotated": false,
	"trimmed": false,
	"spriteSourceSize": {"x":0,"y":0,"w":375,"h":493},
	"sourceSize": {"w":375,"h":493}
},
"cookie20.png":
{
	"frame": {"x":1500,"y":1479,"w":375,"h":493},
	"rotated": false,
	"trimmed": false,
	"spriteSourceSize": {"x":0,"y":0,"w":375,"h":493},
	"sourceSize": {"w":375,"h":493}
},
"cookie21.png":
{
	"frame": {"x":0,"y":1972,"w":375,"h":493},
	"rotated": false,
	"trimmed": false,
	"spriteSourceSize": {"x":0,"y":0,"w":375,"h":493},
	"sourceSize": {"w":375,"h":493}
},
"cookie22.png":
{
	"frame": {"x":375,"y":1972,"w":375,"h":493},
	"rotated": false,
	"trimmed": false,
	"spriteSourceSize": {"x":0,"y":0,"w":375,"h":493},
	"sourceSize": {"w":375,"h":493}
},
"cookie23.png":
{
	"frame": {"x":750,"y":1972,"w":375,"h":493},
	"rotated": false,
	"trimmed": false,
	"spriteSourceSize": {"x":0,"y":0,"w":375,"h":493},
	"sourceSize": {"w":375,"h":493}
},
"cookie24.png":
{
	"frame": {"x":1125,"y":1972,"w":375,"h":493},
	"rotated": false,
	"trimmed": false,
	"spriteSourceSize": {"x":0,"y":0,"w":375,"h":493},
	"sourceSize": {"w":375,"h":493}
}},
"meta": {
	"app": "http://www.codeandweb.com/texturepacker",
	"version": "1.0",
	"image": "Ch_Gs_Ow.png",
	"format": "RGBA8888",
	"size": {"w":1875,"h":2465},
	"scale": "1",
	"smartupdate": "$TexturePacker:SmartUpdate:f8820e81d88cbc199f7b04cdd72b60cb:90499272c96d5213f3b4e3645c8c3861:200dee6a183e5b2a7de94b3a757abf95$"
}
}
