{"frames": {

"CM_Tb_Full0001.png":
{
	"frame": {"x":0,"y":0,"w":472,"h":436},
	"rotated": false,
	"trimmed": false,
	"spriteSourceSize": {"x":0,"y":0,"w":472,"h":436},
	"sourceSize": {"w":472,"h":436}
},
"CM_Tb_Full0002.png":
{
	"frame": {"x":472,"y":0,"w":472,"h":436},
	"rotated": false,
	"trimmed": false,
	"spriteSourceSize": {"x":0,"y":0,"w":472,"h":436},
	"sourceSize": {"w":472,"h":436}
},
"CM_Tb_Full0003.png":
{
	"frame": {"x":944,"y":0,"w":472,"h":436},
	"rotated": false,
	"trimmed": false,
	"spriteSourceSize": {"x":0,"y":0,"w":472,"h":436},
	"sourceSize": {"w":472,"h":436}
},
"CM_Tb_Full0004.png":
{
	"frame": {"x":1416,"y":0,"w":472,"h":436},
	"rotated": false,
	"trimmed": false,
	"spriteSourceSize": {"x":0,"y":0,"w":472,"h":436},
	"sourceSize": {"w":472,"h":436}
},
"CM_Tb_Full0005.png":
{
	"frame": {"x":1888,"y":0,"w":472,"h":436},
	"rotated": false,
	"trimmed": false,
	"spriteSourceSize": {"x":0,"y":0,"w":472,"h":436},
	"sourceSize": {"w":472,"h":436}
},
"CM_Tb_Full0006.png":
{
	"frame": {"x":2360,"y":0,"w":472,"h":436},
	"rotated": false,
	"trimmed": false,
	"spriteSourceSize": {"x":0,"y":0,"w":472,"h":436},
	"sourceSize": {"w":472,"h":436}
},
"CM_Tb_Full0007.png":
{
	"frame": {"x":2832,"y":0,"w":472,"h":436},
	"rotated": false,
	"trimmed": false,
	"spriteSourceSize": {"x":0,"y":0,"w":472,"h":436},
	"sourceSize": {"w":472,"h":436}
},
"CM_Tb_Full0008.png":
{
	"frame": {"x":3304,"y":0,"w":472,"h":436},
	"rotated": false,
	"trimmed": false,
	"spriteSourceSize": {"x":0,"y":0,"w":472,"h":436},
	"sourceSize": {"w":472,"h":436}
},
"CM_Tb_Full0009.png":
{
	"frame": {"x":0,"y":436,"w":472,"h":436},
	"rotated": false,
	"trimmed": false,
	"spriteSourceSize": {"x":0,"y":0,"w":472,"h":436},
	"sourceSize": {"w":472,"h":436}
},
"CM_Tb_Full0010.png":
{
	"frame": {"x":472,"y":436,"w":472,"h":436},
	"rotated": false,
	"trimmed": false,
	"spriteSourceSize": {"x":0,"y":0,"w":472,"h":436},
	"sourceSize": {"w":472,"h":436}
},
"CM_Tb_Full0011.png":
{
	"frame": {"x":944,"y":436,"w":472,"h":436},
	"rotated": false,
	"trimmed": false,
	"spriteSourceSize": {"x":0,"y":0,"w":472,"h":436},
	"sourceSize": {"w":472,"h":436}
},
"CM_Tb_Full0012.png":
{
	"frame": {"x":1416,"y":436,"w":472,"h":436},
	"rotated": false,
	"trimmed": false,
	"spriteSourceSize": {"x":0,"y":0,"w":472,"h":436},
	"sourceSize": {"w":472,"h":436}
},
"CM_Tb_Full0013.png":
{
	"frame": {"x":1888,"y":436,"w":472,"h":436},
	"rotated": false,
	"trimmed": false,
	"spriteSourceSize": {"x":0,"y":0,"w":472,"h":436},
	"sourceSize": {"w":472,"h":436}
},
"CM_Tb_Full0014.png":
{
	"frame": {"x":2360,"y":436,"w":472,"h":436},
	"rotated": false,
	"trimmed": false,
	"spriteSourceSize": {"x":0,"y":0,"w":472,"h":436},
	"sourceSize": {"w":472,"h":436}
},
"CM_Tb_Full0015.png":
{
	"frame": {"x":2832,"y":436,"w":472,"h":436},
	"rotated": false,
	"trimmed": false,
	"spriteSourceSize": {"x":0,"y":0,"w":472,"h":436},
	"sourceSize": {"w":472,"h":436}
},
"CM_Tb_Full0016.png":
{
	"frame": {"x":3304,"y":436,"w":472,"h":436},
	"rotated": false,
	"trimmed": false,
	"spriteSourceSize": {"x":0,"y":0,"w":472,"h":436},
	"sourceSize": {"w":472,"h":436}
},
"CM_Tb_Full0017.png":
{
	"frame": {"x":0,"y":872,"w":472,"h":436},
	"rotated": false,
	"trimmed": false,
	"spriteSourceSize": {"x":0,"y":0,"w":472,"h":436},
	"sourceSize": {"w":472,"h":436}
},
"CM_Tb_Full0018.png":
{
	"frame": {"x":472,"y":872,"w":472,"h":436},
	"rotated": false,
	"trimmed": false,
	"spriteSourceSize": {"x":0,"y":0,"w":472,"h":436},
	"sourceSize": {"w":472,"h":436}
},
"CM_Tb_Full0019.png":
{
	"frame": {"x":944,"y":872,"w":472,"h":436},
	"rotated": false,
	"trimmed": false,
	"spriteSourceSize": {"x":0,"y":0,"w":472,"h":436},
	"sourceSize": {"w":472,"h":436}
},
"CM_Tb_Full0020.png":
{
	"frame": {"x":1416,"y":872,"w":472,"h":436},
	"rotated": false,
	"trimmed": false,
	"spriteSourceSize": {"x":0,"y":0,"w":472,"h":436},
	"sourceSize": {"w":472,"h":436}
},
"CM_Tb_Full0021.png":
{
	"frame": {"x":1888,"y":872,"w":472,"h":436},
	"rotated": false,
	"trimmed": false,
	"spriteSourceSize": {"x":0,"y":0,"w":472,"h":436},
	"sourceSize": {"w":472,"h":436}
},
"CM_Tb_Full0022.png":
{
	"frame": {"x":2360,"y":872,"w":472,"h":436},
	"rotated": false,
	"trimmed": false,
	"spriteSourceSize": {"x":0,"y":0,"w":472,"h":436},
	"sourceSize": {"w":472,"h":436}
},
"CM_Tb_Full0023.png":
{
	"frame": {"x":2832,"y":872,"w":472,"h":436},
	"rotated": false,
	"trimmed": false,
	"spriteSourceSize": {"x":0,"y":0,"w":472,"h":436},
	"sourceSize": {"w":472,"h":436}
},
"CM_Tb_Full0024.png":
{
	"frame": {"x":3304,"y":872,"w":472,"h":436},
	"rotated": false,
	"trimmed": false,
	"spriteSourceSize": {"x":0,"y":0,"w":472,"h":436},
	"sourceSize": {"w":472,"h":436}
},
"CM_Tb_Full0025.png":
{
	"frame": {"x":0,"y":1308,"w":472,"h":436},
	"rotated": false,
	"trimmed": false,
	"spriteSourceSize": {"x":0,"y":0,"w":472,"h":436},
	"sourceSize": {"w":472,"h":436}
},
"CM_Tb_Full0026.png":
{
	"frame": {"x":472,"y":1308,"w":472,"h":436},
	"rotated": false,
	"trimmed": false,
	"spriteSourceSize": {"x":0,"y":0,"w":472,"h":436},
	"sourceSize": {"w":472,"h":436}
},
"CM_Tb_Full0027.png":
{
	"frame": {"x":944,"y":1308,"w":472,"h":436},
	"rotated": false,
	"trimmed": false,
	"spriteSourceSize": {"x":0,"y":0,"w":472,"h":436},
	"sourceSize": {"w":472,"h":436}
},
"CM_Tb_Full0028.png":
{
	"frame": {"x":1416,"y":1308,"w":472,"h":436},
	"rotated": false,
	"trimmed": false,
	"spriteSourceSize": {"x":0,"y":0,"w":472,"h":436},
	"sourceSize": {"w":472,"h":436}
},
"CM_Tb_Full0029.png":
{
	"frame": {"x":1888,"y":1308,"w":472,"h":436},
	"rotated": false,
	"trimmed": false,
	"spriteSourceSize": {"x":0,"y":0,"w":472,"h":436},
	"sourceSize": {"w":472,"h":436}
},
"CM_Tb_Full0030.png":
{
	"frame": {"x":2360,"y":1308,"w":472,"h":436},
	"rotated": false,
	"trimmed": false,
	"spriteSourceSize": {"x":0,"y":0,"w":472,"h":436},
	"sourceSize": {"w":472,"h":436}
},
"CM_Tb_Full0031.png":
{
	"frame": {"x":2832,"y":1308,"w":472,"h":436},
	"rotated": false,
	"trimmed": false,
	"spriteSourceSize": {"x":0,"y":0,"w":472,"h":436},
	"sourceSize": {"w":472,"h":436}
},
"CM_Tb_Full0032.png":
{
	"frame": {"x":3304,"y":1308,"w":472,"h":436},
	"rotated": false,
	"trimmed": false,
	"spriteSourceSize": {"x":0,"y":0,"w":472,"h":436},
	"sourceSize": {"w":472,"h":436}
},
"CM_Tb_Full0033.png":
{
	"frame": {"x":0,"y":1744,"w":472,"h":436},
	"rotated": false,
	"trimmed": false,
	"spriteSourceSize": {"x":0,"y":0,"w":472,"h":436},
	"sourceSize": {"w":472,"h":436}
},
"CM_Tb_Full0034.png":
{
	"frame": {"x":472,"y":1744,"w":472,"h":436},
	"rotated": false,
	"trimmed": false,
	"spriteSourceSize": {"x":0,"y":0,"w":472,"h":436},
	"sourceSize": {"w":472,"h":436}
},
"CM_Tb_Full0035.png":
{
	"frame": {"x":944,"y":1744,"w":472,"h":436},
	"rotated": false,
	"trimmed": false,
	"spriteSourceSize": {"x":0,"y":0,"w":472,"h":436},
	"sourceSize": {"w":472,"h":436}
},
"CM_Tb_Full0036.png":
{
	"frame": {"x":1416,"y":1744,"w":472,"h":436},
	"rotated": false,
	"trimmed": false,
	"spriteSourceSize": {"x":0,"y":0,"w":472,"h":436},
	"sourceSize": {"w":472,"h":436}
},
"CM_Tb_Full0037.png":
{
	"frame": {"x":1888,"y":1744,"w":472,"h":436},
	"rotated": false,
	"trimmed": false,
	"spriteSourceSize": {"x":0,"y":0,"w":472,"h":436},
	"sourceSize": {"w":472,"h":436}
},
"CM_Tb_Full0038.png":
{
	"frame": {"x":2360,"y":1744,"w":472,"h":436},
	"rotated": false,
	"trimmed": false,
	"spriteSourceSize": {"x":0,"y":0,"w":472,"h":436},
	"sourceSize": {"w":472,"h":436}
},
"CM_Tb_Full0039.png":
{
	"frame": {"x":2832,"y":1744,"w":472,"h":436},
	"rotated": false,
	"trimmed": false,
	"spriteSourceSize": {"x":0,"y":0,"w":472,"h":436},
	"sourceSize": {"w":472,"h":436}
},
"CM_Tb_Full0040.png":
{
	"frame": {"x":3304,"y":1744,"w":472,"h":436},
	"rotated": false,
	"trimmed": false,
	"spriteSourceSize": {"x":0,"y":0,"w":472,"h":436},
	"sourceSize": {"w":472,"h":436}
},
"CM_Tb_Full0041.png":
{
	"frame": {"x":0,"y":2180,"w":472,"h":436},
	"rotated": false,
	"trimmed": false,
	"spriteSourceSize": {"x":0,"y":0,"w":472,"h":436},
	"sourceSize": {"w":472,"h":436}
},
"CM_Tb_Full0042.png":
{
	"frame": {"x":472,"y":2180,"w":472,"h":436},
	"rotated": false,
	"trimmed": false,
	"spriteSourceSize": {"x":0,"y":0,"w":472,"h":436},
	"sourceSize": {"w":472,"h":436}
},
"CM_Tb_Full0043.png":
{
	"frame": {"x":944,"y":2180,"w":472,"h":436},
	"rotated": false,
	"trimmed": false,
	"spriteSourceSize": {"x":0,"y":0,"w":472,"h":436},
	"sourceSize": {"w":472,"h":436}
},
"CM_Tb_Full0044.png":
{
	"frame": {"x":1416,"y":2180,"w":472,"h":436},
	"rotated": false,
	"trimmed": false,
	"spriteSourceSize": {"x":0,"y":0,"w":472,"h":436},
	"sourceSize": {"w":472,"h":436}
},
"CM_Tb_Full0045.png":
{
	"frame": {"x":1888,"y":2180,"w":472,"h":436},
	"rotated": false,
	"trimmed": false,
	"spriteSourceSize": {"x":0,"y":0,"w":472,"h":436},
	"sourceSize": {"w":472,"h":436}
},
"CM_Tb_Full0046.png":
{
	"frame": {"x":2360,"y":2180,"w":472,"h":436},
	"rotated": false,
	"trimmed": false,
	"spriteSourceSize": {"x":0,"y":0,"w":472,"h":436},
	"sourceSize": {"w":472,"h":436}
},
"CM_Tb_Full0047.png":
{
	"frame": {"x":2832,"y":2180,"w":472,"h":436},
	"rotated": false,
	"trimmed": false,
	"spriteSourceSize": {"x":0,"y":0,"w":472,"h":436},
	"sourceSize": {"w":472,"h":436}
},
"CM_Tb_Full0048.png":
{
	"frame": {"x":3304,"y":2180,"w":472,"h":436},
	"rotated": false,
	"trimmed": false,
	"spriteSourceSize": {"x":0,"y":0,"w":472,"h":436},
	"sourceSize": {"w":472,"h":436}
},
"CM_Tb_Full0049.png":
{
	"frame": {"x":0,"y":2616,"w":472,"h":436},
	"rotated": false,
	"trimmed": false,
	"spriteSourceSize": {"x":0,"y":0,"w":472,"h":436},
	"sourceSize": {"w":472,"h":436}
},
"CM_Tb_Full0050.png":
{
	"frame": {"x":472,"y":2616,"w":472,"h":436},
	"rotated": false,
	"trimmed": false,
	"spriteSourceSize": {"x":0,"y":0,"w":472,"h":436},
	"sourceSize": {"w":472,"h":436}
},
"CM_Tb_Full0051.png":
{
	"frame": {"x":944,"y":2616,"w":472,"h":436},
	"rotated": false,
	"trimmed": false,
	"spriteSourceSize": {"x":0,"y":0,"w":472,"h":436},
	"sourceSize": {"w":472,"h":436}
},
"CM_Tb_Full0052.png":
{
	"frame": {"x":1416,"y":2616,"w":472,"h":436},
	"rotated": false,
	"trimmed": false,
	"spriteSourceSize": {"x":0,"y":0,"w":472,"h":436},
	"sourceSize": {"w":472,"h":436}
},
"CM_Tb_Full0053.png":
{
	"frame": {"x":1888,"y":2616,"w":472,"h":436},
	"rotated": false,
	"trimmed": false,
	"spriteSourceSize": {"x":0,"y":0,"w":472,"h":436},
	"sourceSize": {"w":472,"h":436}
},
"CM_Tb_Full0054.png":
{
	"frame": {"x":2360,"y":2616,"w":472,"h":436},
	"rotated": false,
	"trimmed": false,
	"spriteSourceSize": {"x":0,"y":0,"w":472,"h":436},
	"sourceSize": {"w":472,"h":436}
},
"CM_Tb_Full0055.png":
{
	"frame": {"x":2832,"y":2616,"w":472,"h":436},
	"rotated": false,
	"trimmed": false,
	"spriteSourceSize": {"x":0,"y":0,"w":472,"h":436},
	"sourceSize": {"w":472,"h":436}
},
"CM_Tb_Full0056.png":
{
	"frame": {"x":3304,"y":2616,"w":472,"h":436},
	"rotated": false,
	"trimmed": false,
	"spriteSourceSize": {"x":0,"y":0,"w":472,"h":436},
	"sourceSize": {"w":472,"h":436}
},
"CM_Tb_Full0057.png":
{
	"frame": {"x":0,"y":3052,"w":472,"h":436},
	"rotated": false,
	"trimmed": false,
	"spriteSourceSize": {"x":0,"y":0,"w":472,"h":436},
	"sourceSize": {"w":472,"h":436}
},
"CM_Tb_Full0058.png":
{
	"frame": {"x":472,"y":3052,"w":472,"h":436},
	"rotated": false,
	"trimmed": false,
	"spriteSourceSize": {"x":0,"y":0,"w":472,"h":436},
	"sourceSize": {"w":472,"h":436}
},
"CM_Tb_Full0059.png":
{
	"frame": {"x":944,"y":3052,"w":472,"h":436},
	"rotated": false,
	"trimmed": false,
	"spriteSourceSize": {"x":0,"y":0,"w":472,"h":436},
	"sourceSize": {"w":472,"h":436}
},
"CM_Tb_Full0060.png":
{
	"frame": {"x":1416,"y":3052,"w":472,"h":436},
	"rotated": false,
	"trimmed": false,
	"spriteSourceSize": {"x":0,"y":0,"w":472,"h":436},
	"sourceSize": {"w":472,"h":436}
},
"CM_Tb_Full0061.png":
{
	"frame": {"x":1888,"y":3052,"w":472,"h":436},
	"rotated": false,
	"trimmed": false,
	"spriteSourceSize": {"x":0,"y":0,"w":472,"h":436},
	"sourceSize": {"w":472,"h":436}
},
"CM_Tb_Full0062.png":
{
	"frame": {"x":2360,"y":3052,"w":472,"h":436},
	"rotated": false,
	"trimmed": false,
	"spriteSourceSize": {"x":0,"y":0,"w":472,"h":436},
	"sourceSize": {"w":472,"h":436}
},
"CM_Tb_Full0063.png":
{
	"frame": {"x":2832,"y":3052,"w":472,"h":436},
	"rotated": false,
	"trimmed": false,
	"spriteSourceSize": {"x":0,"y":0,"w":472,"h":436},
	"sourceSize": {"w":472,"h":436}
},
"CM_Tb_Full0064.png":
{
	"frame": {"x":3304,"y":3052,"w":472,"h":436},
	"rotated": false,
	"trimmed": false,
	"spriteSourceSize": {"x":0,"y":0,"w":472,"h":436},
	"sourceSize": {"w":472,"h":436}
},
"CM_Tb_Full0065.png":
{
	"frame": {"x":0,"y":3488,"w":472,"h":436},
	"rotated": false,
	"trimmed": false,
	"spriteSourceSize": {"x":0,"y":0,"w":472,"h":436},
	"sourceSize": {"w":472,"h":436}
},
"CM_Tb_Full0066.png":
{
	"frame": {"x":472,"y":3488,"w":472,"h":436},
	"rotated": false,
	"trimmed": false,
	"spriteSourceSize": {"x":0,"y":0,"w":472,"h":436},
	"sourceSize": {"w":472,"h":436}
},
"CM_Tb_Full0067.png":
{
	"frame": {"x":944,"y":3488,"w":472,"h":436},
	"rotated": false,
	"trimmed": false,
	"spriteSourceSize": {"x":0,"y":0,"w":472,"h":436},
	"sourceSize": {"w":472,"h":436}
},
"CM_Tb_Full0068.png":
{
	"frame": {"x":1416,"y":3488,"w":472,"h":436},
	"rotated": false,
	"trimmed": false,
	"spriteSourceSize": {"x":0,"y":0,"w":472,"h":436},
	"sourceSize": {"w":472,"h":436}
},
"CM_Tb_Full0069.png":
{
	"frame": {"x":1888,"y":3488,"w":472,"h":436},
	"rotated": false,
	"trimmed": false,
	"spriteSourceSize": {"x":0,"y":0,"w":472,"h":436},
	"sourceSize": {"w":472,"h":436}
},
"CM_Tb_Full0070.png":
{
	"frame": {"x":2360,"y":3488,"w":472,"h":436},
	"rotated": false,
	"trimmed": false,
	"spriteSourceSize": {"x":0,"y":0,"w":472,"h":436},
	"sourceSize": {"w":472,"h":436}
},
"CM_Tb_Full0071.png":
{
	"frame": {"x":2832,"y":3488,"w":472,"h":436},
	"rotated": false,
	"trimmed": false,
	"spriteSourceSize": {"x":0,"y":0,"w":472,"h":436},
	"sourceSize": {"w":472,"h":436}
},
"CM_Tb_Full0072.png":
{
	"frame": {"x":3304,"y":3488,"w":472,"h":436},
	"rotated": false,
	"trimmed": false,
	"spriteSourceSize": {"x":0,"y":0,"w":472,"h":436},
	"sourceSize": {"w":472,"h":436}
}},
"meta": {
	"app": "http://www.codeandweb.com/texturepacker",
	"version": "1.0",
	"image": "CM_Tb_Full.png",
	"format": "RGBA8888",
	"size": {"w":3776,"h":3924},
	"scale": "1",
	"smartupdate": "$TexturePacker:SmartUpdate:b400e3616181c91a1ac6d303b50fb863:c590177a8da36dd2c5fb164aeb00ab6e:f6c0613a6d8faaf9d84d20a390705a0f$"
}
}
