{"frames": {

"GR_Tb_End0001.png":
{
	"frame": {"x":0,"y":0,"w":353,"h":417},
	"rotated": false,
	"trimmed": false,
	"spriteSourceSize": {"x":0,"y":0,"w":353,"h":417},
	"sourceSize": {"w":353,"h":417}
},
"GR_Tb_End0002.png":
{
	"frame": {"x":353,"y":0,"w":353,"h":417},
	"rotated": false,
	"trimmed": false,
	"spriteSourceSize": {"x":0,"y":0,"w":353,"h":417},
	"sourceSize": {"w":353,"h":417}
},
"GR_Tb_End0003.png":
{
	"frame": {"x":0,"y":417,"w":353,"h":417},
	"rotated": false,
	"trimmed": false,
	"spriteSourceSize": {"x":0,"y":0,"w":353,"h":417},
	"sourceSize": {"w":353,"h":417}
},
"GR_Tb_End0004.png":
{
	"frame": {"x":353,"y":417,"w":353,"h":417},
	"rotated": false,
	"trimmed": false,
	"spriteSourceSize": {"x":0,"y":0,"w":353,"h":417},
	"sourceSize": {"w":353,"h":417}
},
"GR_Tb_End0005.png":
{
	"frame": {"x":0,"y":834,"w":353,"h":417},
	"rotated": false,
	"trimmed": false,
	"spriteSourceSize": {"x":0,"y":0,"w":353,"h":417},
	"sourceSize": {"w":353,"h":417}
},
"GR_Tb_End0006.png":
{
	"frame": {"x":353,"y":834,"w":353,"h":417},
	"rotated": false,
	"trimmed": false,
	"spriteSourceSize": {"x":0,"y":0,"w":353,"h":417},
	"sourceSize": {"w":353,"h":417}
},
"GR_Tb_End0007.png":
{
	"frame": {"x":0,"y":1251,"w":353,"h":417},
	"rotated": false,
	"trimmed": false,
	"spriteSourceSize": {"x":0,"y":0,"w":353,"h":417},
	"sourceSize": {"w":353,"h":417}
},
"GR_Tb_End0008.png":
{
	"frame": {"x":353,"y":1251,"w":353,"h":417},
	"rotated": false,
	"trimmed": false,
	"spriteSourceSize": {"x":0,"y":0,"w":353,"h":417},
	"sourceSize": {"w":353,"h":417}
},
"GR_Tb_End0009.png":
{
	"frame": {"x":0,"y":1668,"w":353,"h":417},
	"rotated": false,
	"trimmed": false,
	"spriteSourceSize": {"x":0,"y":0,"w":353,"h":417},
	"sourceSize": {"w":353,"h":417}
},
"GR_Tb_End0010.png":
{
	"frame": {"x":353,"y":1668,"w":353,"h":417},
	"rotated": false,
	"trimmed": false,
	"spriteSourceSize": {"x":0,"y":0,"w":353,"h":417},
	"sourceSize": {"w":353,"h":417}
},
"GR_Tb_End0011.png":
{
	"frame": {"x":0,"y":2085,"w":353,"h":417},
	"rotated": false,
	"trimmed": false,
	"spriteSourceSize": {"x":0,"y":0,"w":353,"h":417},
	"sourceSize": {"w":353,"h":417}
},
"GR_Tb_End0012.png":
{
	"frame": {"x":353,"y":2085,"w":353,"h":417},
	"rotated": false,
	"trimmed": false,
	"spriteSourceSize": {"x":0,"y":0,"w":353,"h":417},
	"sourceSize": {"w":353,"h":417}
},
"GR_Tb_End0013.png":
{
	"frame": {"x":0,"y":2502,"w":353,"h":417},
	"rotated": false,
	"trimmed": false,
	"spriteSourceSize": {"x":0,"y":0,"w":353,"h":417},
	"sourceSize": {"w":353,"h":417}
},
"GR_Tb_End0014.png":
{
	"frame": {"x":353,"y":2502,"w":353,"h":417},
	"rotated": false,
	"trimmed": false,
	"spriteSourceSize": {"x":0,"y":0,"w":353,"h":417},
	"sourceSize": {"w":353,"h":417}
},
"GR_Tb_End0015.png":
{
	"frame": {"x":0,"y":2919,"w":353,"h":417},
	"rotated": false,
	"trimmed": false,
	"spriteSourceSize": {"x":0,"y":0,"w":353,"h":417},
	"sourceSize": {"w":353,"h":417}
},
"GR_Tb_End0016.png":
{
	"frame": {"x":353,"y":2919,"w":353,"h":417},
	"rotated": false,
	"trimmed": false,
	"spriteSourceSize": {"x":0,"y":0,"w":353,"h":417},
	"sourceSize": {"w":353,"h":417}
},
"GR_Tb_End0017.png":
{
	"frame": {"x":0,"y":3336,"w":353,"h":417},
	"rotated": false,
	"trimmed": false,
	"spriteSourceSize": {"x":0,"y":0,"w":353,"h":417},
	"sourceSize": {"w":353,"h":417}
},
"GR_Tb_End0018.png":
{
	"frame": {"x":353,"y":3336,"w":353,"h":417},
	"rotated": false,
	"trimmed": false,
	"spriteSourceSize": {"x":0,"y":0,"w":353,"h":417},
	"sourceSize": {"w":353,"h":417}
}},
"meta": {
	"app": "http://www.codeandweb.com/texturepacker",
	"version": "1.0",
	"image": "GR_Tb_End.png",
	"format": "RGBA8888",
	"size": {"w":706,"h":3753},
	"scale": "1",
	"smartupdate": "$TexturePacker:SmartUpdate:193871c95bcf93e676ee8a9c20ea38b5:8d838adf120af53274dc2ed94177edf0:88dd347452a1b6487822077935e48559$"
}
}
