{"frames": {

"grover1.png":
{
	"frame": {"x":0,"y":0,"w":321,"h":485},
	"rotated": false,
	"trimmed": false,
	"spriteSourceSize": {"x":0,"y":0,"w":321,"h":485},
	"sourceSize": {"w":321,"h":485}
},
"grover2.png":
{
	"frame": {"x":321,"y":0,"w":321,"h":485},
	"rotated": false,
	"trimmed": false,
	"spriteSourceSize": {"x":0,"y":0,"w":321,"h":485},
	"sourceSize": {"w":321,"h":485}
},
"grover3.png":
{
	"frame": {"x":642,"y":0,"w":321,"h":485},
	"rotated": false,
	"trimmed": false,
	"spriteSourceSize": {"x":0,"y":0,"w":321,"h":485},
	"sourceSize": {"w":321,"h":485}
},
"grover4.png":
{
	"frame": {"x":963,"y":0,"w":321,"h":485},
	"rotated": false,
	"trimmed": false,
	"spriteSourceSize": {"x":0,"y":0,"w":321,"h":485},
	"sourceSize": {"w":321,"h":485}
},
"grover5.png":
{
	"frame": {"x":1284,"y":0,"w":321,"h":485},
	"rotated": false,
	"trimmed": false,
	"spriteSourceSize": {"x":0,"y":0,"w":321,"h":485},
	"sourceSize": {"w":321,"h":485}
},
"grover6.png":
{
	"frame": {"x":0,"y":485,"w":321,"h":485},
	"rotated": false,
	"trimmed": false,
	"spriteSourceSize": {"x":0,"y":0,"w":321,"h":485},
	"sourceSize": {"w":321,"h":485}
},
"grover7.png":
{
	"frame": {"x":321,"y":485,"w":321,"h":485},
	"rotated": false,
	"trimmed": false,
	"spriteSourceSize": {"x":0,"y":0,"w":321,"h":485},
	"sourceSize": {"w":321,"h":485}
},
"grover8.png":
{
	"frame": {"x":642,"y":485,"w":321,"h":485},
	"rotated": false,
	"trimmed": false,
	"spriteSourceSize": {"x":0,"y":0,"w":321,"h":485},
	"sourceSize": {"w":321,"h":485}
},
"grover9.png":
{
	"frame": {"x":963,"y":485,"w":321,"h":485},
	"rotated": false,
	"trimmed": false,
	"spriteSourceSize": {"x":0,"y":0,"w":321,"h":485},
	"sourceSize": {"w":321,"h":485}
},
"grover10.png":
{
	"frame": {"x":1284,"y":485,"w":321,"h":485},
	"rotated": false,
	"trimmed": false,
	"spriteSourceSize": {"x":0,"y":0,"w":321,"h":485},
	"sourceSize": {"w":321,"h":485}
},
"grover11.png":
{
	"frame": {"x":0,"y":970,"w":321,"h":485},
	"rotated": false,
	"trimmed": false,
	"spriteSourceSize": {"x":0,"y":0,"w":321,"h":485},
	"sourceSize": {"w":321,"h":485}
},
"grover12.png":
{
	"frame": {"x":321,"y":970,"w":321,"h":485},
	"rotated": false,
	"trimmed": false,
	"spriteSourceSize": {"x":0,"y":0,"w":321,"h":485},
	"sourceSize": {"w":321,"h":485}
},
"grover13.png":
{
	"frame": {"x":642,"y":970,"w":321,"h":485},
	"rotated": false,
	"trimmed": false,
	"spriteSourceSize": {"x":0,"y":0,"w":321,"h":485},
	"sourceSize": {"w":321,"h":485}
},
"grover14.png":
{
	"frame": {"x":963,"y":970,"w":321,"h":485},
	"rotated": false,
	"trimmed": false,
	"spriteSourceSize": {"x":0,"y":0,"w":321,"h":485},
	"sourceSize": {"w":321,"h":485}
},
"grover15.png":
{
	"frame": {"x":1284,"y":970,"w":321,"h":485},
	"rotated": false,
	"trimmed": false,
	"spriteSourceSize": {"x":0,"y":0,"w":321,"h":485},
	"sourceSize": {"w":321,"h":485}
}},
"meta": {
	"app": "http://www.codeandweb.com/texturepacker",
	"version": "1.0",
	"image": "Ph_Gb_Bw.png",
	"format": "RGBA8888",
	"size": {"w":1605,"h":1455},
	"scale": "1",
	"smartupdate": "$TexturePacker:SmartUpdate:48b3aecb90585384f088f311757ade98:37be0e526d0a3d240033580aa1387950:367496636d4261c8021616e25efb67cf$"
}
}
